[
  {
    "id": 0,
    "price": 943.45,
    "name": "TWIGGERY",
    "available": false,
    "tags": [
      "reprehenderit"
    ]
  },
  {
    "id": 1,
    "price": 495.31,
    "name": "EXOBLUE",
    "available": false,
    "tags": [
      "magna",
      "officia"
    ]
  },
  {
    "id": 2,
    "price": 406.29,
    "name": "ZBOO",
    "available": true,
    "tags": [
      "cillum",
      "nostrud"
    ]
  },
  {
    "id": 3,
    "price": 121.25,
    "name": "ATGEN",
    "available": true,
    "tags": [
      "minim",
      "deserunt",
      "officia"
    ]
  },
  {
    "id": 4,
    "price": 796.54,
    "name": "SPACEWAX",
    "available": false,
    "tags": [
      "nostrud",
      "sit",
      "pariatur"
    ]
  },
  {
    "id": 5,
    "price": 731.4,
    "name": "VOIPA",
    "available": true,
    "tags": [
      "et",
      "commodo",
      "voluptate"
    ]
  },
  {
    "id": 6,
    "price": 174.66,
    "name": "TERAPRENE",
    "available": true,
    "tags": [
      "laboris",
      "proident"
    ]
  },
  {
    "id": 7,
    "price": 888.28,
    "name": "RECRISYS",
    "available": false,
    "tags": [
      "reprehenderit"
    ]
  },
  {
    "id": 8,
    "price": 708.03,
    "name": "XLEEN",
    "available": false,
    "tags": [
      "amet",
      "aliquip",
      "ipsum"
    ]
  },
  {
    "id": 9,
    "price": 535.28,
    "name": "SUPREMIA",
    "available": false,
    "tags": [
      "qui",
      "velit"
    ]
  }
]